<?xml version="1.0" encoding="UTF-8" standalone="no"?>
<!-- Created with Inkscape (http://www.inkscape.org/) -->

<svg
   xmlns:dc="http://purl.org/dc/elements/1.1/"
   xmlns:cc="http://creativecommons.org/ns#"
   xmlns:rdf="http://www.w3.org/1999/02/22-rdf-syntax-ns#"
   xmlns:svg="http://www.w3.org/2000/svg"
   xmlns="http://www.w3.org/2000/svg"
   xmlns:sodipodi="http://sodipodi.sourceforge.net/DTD/sodipodi-0.dtd"
   xmlns:inkscape="http://www.inkscape.org/namespaces/inkscape"
   width="23.946825mm"
   height="29.238491mm"
   viewBox="0 0 23.946825 29.238491"
   version="1.1"
   id="svg8"
   inkscape:version="0.92.2 5c3e80d, 2017-08-06"
   sodipodi:docname="totejo-logo.svg"
   inkscape:export-filename="/home/mrman/totejo-logo.png"
   inkscape:export-xdpi="51.581902"
   inkscape:export-ydpi="51.581902">
  <defs
     id="defs2">
    <inkscape:perspective
       sodipodi:type="inkscape:persp3d"
       inkscape:vp_x="0 : 148.49999 : 1"
       inkscape:vp_y="0 : 999.99996 : 0"
       inkscape:vp_z="210.00001 : 148.49999 : 1"
       inkscape:persp3d-origin="105 : 98.999996 : 1"
       id="perspective5602" />
  </defs>
  <sodipodi:namedview
     id="base"
     pagecolor="#ffffff"
     bordercolor="#666666"
     borderopacity="1.0"
     inkscape:pageopacity="0.0"
     inkscape:pageshadow="2"
     inkscape:zoom="7.1261111"
     inkscape:cx="69.930999"
     inkscape:cy="55.91241"
     inkscape:document-units="mm"
     inkscape:current-layer="layer9"
     showgrid="false"
     inkscape:window-width="1892"
     inkscape:window-height="1052"
     inkscape:window-x="1292"
     inkscape:window-y="12"
     inkscape:window-maximized="1" />
  <metadata
     id="metadata5">
    <rdf:RDF>
      <cc:Work
         rdf:about="">
        <dc:format>image/svg+xml</dc:format>
        <dc:type
           rdf:resource="http://purl.org/dc/dcmitype/StillImage" />
        <dc:title />
      </cc:Work>
    </rdf:RDF>
  </metadata>
  <g
     inkscape:groupmode="layer"
     id="layer6"
     inkscape:label="bg"
     transform="translate(-92.707977,-53.997292)">
    <rect
       style="fill:#ff0000;fill-opacity:1;stroke:none;stroke-width:1.72765362;stroke-linejoin:miter;stroke-miterlimit:4;stroke-dasharray:none;stroke-opacity:1"
       id="rect5082-1-1"
       width="23.946825"
       height="29.238491"
       x="92.707977"
       y="53.997292" />
  </g>
  <g
     inkscape:groupmode="layer"
     id="layer9"
     inkscape:label="letters"
     transform="translate(-0.67818029,-0.97521256)">
    <text
       xml:space="preserve"
       style="font-style:normal;font-weight:normal;font-size:10.58333302px;line-height:125%;font-family:sans-serif;letter-spacing:0px;word-spacing:0px;fill:#ffffff;fill-opacity:1;stroke:none;stroke-width:0.26458332px;stroke-linecap:butt;stroke-linejoin:miter;stroke-opacity:1"
       x="2.390367"
       y="20.018881"
       id="text963"><tspan
         sodipodi:role="line"
         x="10.038479"
         y="0"
         id="tspan957"
         style="stroke-width:0.26458332px"><tspan
           x="2.390367"
           y="20.018881"
           style="font-style:normal;font-variant:normal;font-weight:normal;font-stretch:normal;font-family:'Bebas Neue';-inkscape-font-specification:'Bebas Neue';fill:#ffffff;stroke-width:0.26458332px"
           id="tspan951">Te</tspan><tspan
           x="10.038479"
           y="20.018881"
           style="fill:#ffffff;stroke-width:0.26458332px;-inkscape-font-specification:'Bebas Neue';font-family:'Bebas Neue';font-weight:normal;font-style:normal;font-stretch:normal;font-variant:normal"
           id="tspan953">ch</tspan></tspan><tspan
         sodipodi:role="line"
         x="10.038479"
         y="0"
         id="tspan961"
         style="stroke-width:0.26458332px;-inkscape-font-specification:'Bebas Neue';font-family:'Bebas Neue';font-weight:normal;font-style:normal;font-stretch:normal;font-variant:normal" /></text>
    <text
       xml:space="preserve"
       style="font-style:normal;font-weight:normal;font-size:10.58333302px;line-height:125%;font-family:sans-serif;letter-spacing:0px;word-spacing:0px;fill:#ffffff;fill-opacity:1;stroke:none;stroke-width:0.26458332px;stroke-linecap:butt;stroke-linejoin:miter;stroke-opacity:1"
       x="2.3691981"
       y="28.107388"
       id="text949"><tspan
         sodipodi:role="line"
         x="9.2731695"
         y="0"
         id="tspan947"
         style="stroke-width:0.26458332px"><tspan
           x="2.3691981"
           y="28.107388"
           style="font-style:normal;font-variant:normal;font-weight:normal;font-stretch:normal;font-family:'Bebas Neue';-inkscape-font-specification:'Bebas Neue';fill:#ffffff;stroke-width:0.26458332px"
           id="tspan941">jo</tspan><tspan
           x="9.2731695"
           y="28.107388"
           style="fill:#ffffff;stroke-width:0.26458332px;-inkscape-font-specification:'Bebas Neue';font-family:'Bebas Neue';font-weight:normal;font-style:normal;font-stretch:normal;font-variant:normal"
           id="tspan943">bs</tspan></tspan></text>
    <text
       xml:space="preserve"
       style="font-style:normal;font-weight:normal;font-size:10.58333302px;line-height:125%;font-family:sans-serif;letter-spacing:0px;word-spacing:0px;fill:#ffffff;fill-opacity:1;stroke:none;stroke-width:0.26458332px;stroke-linecap:butt;stroke-linejoin:miter;stroke-opacity:1"
       x="2.390367"
       y="12.062371"
       id="text973"><tspan
         sodipodi:role="line"
         x="10.348537"
         y="inf"
         id="tspan971"
         style="stroke-width:0.26458332px"><tspan
           x="2.390367"
           y="12.062371"
           style="font-style:normal;font-variant:normal;font-weight:normal;font-stretch:normal;font-family:'Bebas Neue';-inkscape-font-specification:'Bebas Neue';fill:#ffffff;stroke-width:0.26458332px"
           id="tspan965">To</tspan><tspan
           x="10.348537"
           y="12.062371"
           style="fill:#ffffff;stroke-width:0.26458332px;-inkscape-font-specification:'Bebas Neue';font-family:'Bebas Neue';font-weight:normal;font-style:normal;font-stretch:normal;font-variant:normal"
           id="tspan967">kyo</tspan></tspan></text>
  </g>
</svg>
